{"status":"success","meta":{"apiVersion":"5.0.0","layer":"main","count":5,"total":22038,"cached":false,"cacheExpires":"2025-12-16T13:22:30.674Z","executionTimeMs":14552},"links":{"self":"?start=0&limit=5","next":"?start=5&limit=5","first":"?start=0&limit=5","last":"?start=22035&limit=5"},"count":5,"total":22038,"data":[{"Nº Eletro":"A08802","Nº Parada":480014794,"Identificador do Local":"","Ponto":"ABRIGOS CSP","Área de Trabalho":"Zona Oeste - SP","Endereço":"PRAÇA DOUTOR CIPRIANO DE MORAES, SN","Bairro":"LAPA","Cidade":"SÃO PAULO","Estado":"SP","Praça":"SP","Tipo de Equipamento":"","Tipo de Estabelecimento":"Abrigos São Paulo - Abrigos [Sem Publicidade] [383]","Latitude":-23.537233,"Longitude":-46.707552,"Status":"Ativo","Data Cadastro":"29/08/2025 19:18:12","Filial":"Matriz","Área de Risco":"-","Modelo de Abrigo":"-","Tipo de Adesivo":"-","Tipo de Piso":"-","Energizado":"-","Luminária":"-","Abrigo Amigo":"-","Wi-Fi":"-","Câmera":"-","Altura do Totem":"-","Painel Digital":"-","Painel Digital - Tipo":"-","Painel Digital - Posição":"-","Painel Estático":"-","Painel Estático - Tipo":"-","Painel Estático - Posição":"-","Link Operações":"Visualizar","Foto Referência":"","Observações":""},{"Nº Eletro":"A08997","Nº Parada":630014684,"Identificador do Local":"","Ponto":"ABRIGOS CSP","Área de Trabalho":"Zona Oeste - SP","Endereço":"RUA HENRIQUE SCHAUMANN, SN","Bairro":"PINHEIROS","Cidade":"SÃO PAULO","Estado":"SP","Praça":"SP","Tipo de Equipamento":"","Tipo de Estabelecimento":"Abrigos São Paulo - Abrigos [Sem Publicidade] [383]","Latitude":-23.558059,"Longitude":-46.681908,"Status":"Ativo","Data Cadastro":"29/08/2025 19:23:53","Filial":"Matriz","Área de Risco":"-","Modelo de Abrigo":"-","Tipo de Adesivo":"-","Tipo de Piso":"-","Energizado":"-","Luminária":"-","Abrigo Amigo":"-","Wi-Fi":"-","Câmera":"-","Altura do Totem":"-","Painel Digital":"-","Painel Digital - Tipo":"-","Painel Digital - Posição":"-","Painel Estático":"-","Painel Estático - Tipo":"-","Painel Estático - Posição":"-","Link Operações":"Visualizar","Foto Referência":"Acessar Foto","Observações":""},{"Nº Eletro":"A08998","Nº Parada":3406947,"Identificador do Local":"","Ponto":"ABRIGOS CSP","Área de Trabalho":"Zona Sul - SP","Endereço":"RUA GOMES DE CARVALHO, 1666","Bairro":"VILA OLIMPIA","Cidade":"SÃO PAULO","Estado":"SP","Praça":"SP","Tipo de Equipamento":"","Tipo de Estabelecimento":"Abrigos São Paulo - Abrigos [Sem Publicidade] [383]","Latitude":-23.595293,"Longitude":-46.688628,"Status":"Ativo","Data Cadastro":"29/08/2025 19:30:35","Filial":"Sul","Área de Risco":"-","Modelo de Abrigo":"-","Tipo de Adesivo":"-","Tipo de Piso":"-","Energizado":"-","Luminária":"-","Abrigo Amigo":"-","Wi-Fi":"-","Câmera":"-","Altura do Totem":"-","Painel Digital":"-","Painel Digital - Tipo":"-","Painel Digital - Posição":"-","Painel Estático":"-","Painel Estático - Tipo":"-","Painel Estático - Posição":"-","Link Operações":"Visualizar","Foto Referência":"Acessar Foto","Observações":""},{"Nº Eletro":"A08999","Nº Parada":5306686,"Identificador do Local":"","Ponto":"ABRIGOS CSP","Área de Trabalho":"Zona Sul - SP","Endereço":"RUA TABAPUA, 591","Bairro":"ITAIM BIBI","Cidade":"SÃO PAULO","Estado":"SP","Praça":"SP","Tipo de Equipamento":"","Tipo de Estabelecimento":"Abrigos São Paulo - Abrigos [Sem Publicidade] [383]","Latitude":-23.583345,"Longitude":-46.676384,"Status":"Ativo","Data Cadastro":"29/08/2025 19:32:52","Filial":"Sul","Área de Risco":"-","Modelo de Abrigo":"-","Tipo de Adesivo":"-","Tipo de Piso":"-","Energizado":"-","Luminária":"-","Abrigo Amigo":"-","Wi-Fi":"-","Câmera":"-","Altura do Totem":"-","Painel Digital":"-","Painel Digital - Tipo":"-","Painel Digital - Posição":"-","Painel Estático":"-","Painel Estático - Tipo":"-","Painel Estático - Posição":"-","Link Operações":"Visualizar","Foto Referência":"Acessar Foto","Observações":""},{"Nº Eletro":"A08976","Nº Parada":40005567,"Identificador do Local":"","Ponto":"ABRIGOS CSP","Área de Trabalho":"Zona Leste - SP","Endereço":"AGUIAR DA BEIRA, 1306","Bairro":"ARICANDUVA","Cidade":"SÃO PAULO","Estado":"SP","Praça":"SP","Tipo de Equipamento":"","Tipo de Estabelecimento":"Abrigos São Paulo - Abrigos [Sem Publicidade] [383]","Latitude":-23.575992,"Longitude":-46.520445,"Status":"Ativo","Data Cadastro":"18/09/2025 11:51:44","Filial":"Leste","Área de Risco":"-","Modelo de Abrigo":"-","Tipo de Adesivo":"-","Tipo de Piso":"-","Energizado":"-","Luminária":"-","Abrigo Amigo":"-","Wi-Fi":"-","Câmera":"-","Altura do Totem":"-","Painel Digital":"-","Painel Digital - Tipo":"-","Painel Digital - Posição":"-","Painel Estático":"-","Painel Estático - Tipo":"-","Painel Estático - Posição":"-","Link Operações":"Visualizar","Foto Referência":"","Observações":"Equipamento anterior: T04183"}]}
