{
  "status": "success",
  "meta": {
    "apiVersion": "5.0.0",
    "layer": "summary",
    "count": 10,
    "total": 22038,
    "cached": true,
    "cacheExpires": "2025-12-16T20:00:00.000Z",
    "executionTimeMs": 450
  },
  "links": {
    "self": "?start=0&limit=10&layer=summary",
    "next": "?start=10&limit=10&layer=summary",
    "first": "?start=0&limit=10&layer=summary",
    "last": "?start=22030&limit=10&layer=summary"
  },
  "count": 10,
  "total": 22038,
  "data": [
    {
      "Nº Eletro": "A01516",
      "Nº Parada": 720010451,
      "Ponto": "ABRIGOS CSP",
      "Área de Trabalho": "Zona Sul - SP",
      "Endereço": "RUA JOAO ALFREDO (RUA CARLOS GOMES), 177",
      "Bairro": "SANTO AMARO",
      "Cidade": "SÃO PAULO",
      "Estado": "SP",
      "Praça": "SP",
      "Latitude": -23.657252,
      "Longitude": -46.700697,
      "Status": "Ativo",
      "Filial": "Sul",
      "Modelo de Abrigo": "CAOS LEVE",
      "Painel Digital": "-",
      "Painel Digital - Tipo": "-",
      "Painel Digital - Posição": "-",
      "Painel Estático": "2",
      "Painel Estático - Tipo": "SIMPLES/SUSPENSO",
      "Painel Estático - Posição": "180°",
      "Link Operações": "https://operacoes.eletromidia.com.br/places/1516",
      "Foto Referência": "https://operacoes.eletromidia.com.br/storage/places/photos/a01516.jpeg",
      "digitalPanels": 0,
      "staticPanels": 2,
      "totalPanels": 2,
      "hasDigital": false,
      "hasStatic": true,
      "shelterModel": "CAOS LEVE"
    },
    {
      "Nº Eletro": "A01517",
      "Nº Parada": 7206949,
      "Ponto": "ABRIGOS CSP",
      "Área de Trabalho": "Zona Sul - SP",
      "Endereço": "AVENIDA DOUTOR CHUCRI ZAIDAN SHOPPING MORUMBI, OP 1170",
      "Bairro": "SANTO AMARO",
      "Cidade": "SÃO PAULO",
      "Estado": "SP",
      "Praça": "SP",
      "Latitude": -23.623952,
      "Longitude": -46.699983,
      "Status": "Ativo",
      "Filial": "Sul",
      "Modelo de Abrigo": "CAOS LEVE",
      "Painel Digital": "1",
      "Painel Digital - Tipo": "SIMPLES",
      "Painel Digital - Posição": "90°",
      "Painel Estático": "1",
      "Painel Estático - Tipo": "SIMPLES",
      "Painel Estático - Posição": "180°",
      "Link Operações": "https://operacoes.eletromidia.com.br/places/1517",
      "Foto Referência": "https://operacoes.eletromidia.com.br/storage/places/photos/a01517.jpeg",
      "digitalPanels": 1,
      "staticPanels": 1,
      "totalPanels": 2,
      "hasDigital": true,
      "hasStatic": true,
      "shelterModel": "CAOS LEVE"
    },
    {
      "Nº Eletro": "A01519",
      "Nº Parada": 7206791,
      "Ponto": "ABRIGOS CSP",
      "Área de Trabalho": "Zona Sul - SP",
      "Endereço": "RUA PADRE JOSE DE ANCHIETA, OP 190",
      "Bairro": "SANTO AMARO",
      "Cidade": "SÃO PAULO",
      "Estado": "SP",
      "Praça": "SP",
      "Latitude": -23.647019,
      "Longitude": -46.706727,
      "Status": "Ativo",
      "Filial": "Sul",
      "Modelo de Abrigo": "CAOS ESTRUTURADO",
      "Painel Digital": "1",
      "Painel Digital - Tipo": "SIMPLES",
      "Painel Digital - Posição": "45°",
      "Painel Estático": "-",
      "Painel Estático - Tipo": "-",
      "Painel Estático - Posição": "-",
      "Link Operações": "https://operacoes.eletromidia.com.br/places/1519",
      "Foto Referência": "",
      "digitalPanels": 1,
      "staticPanels": 0,
      "totalPanels": 1,
      "hasDigital": true,
      "hasStatic": false,
      "shelterModel": "CAOS ESTRUTURADO"
    },
    {
      "Nº Eletro": "A01525",
      "Nº Parada": 790016092,
      "Ponto": "ABRIGOS CSP",
      "Área de Trabalho": "Zona Sul - SP",
      "Endereço": "AVENIDA BOSQUE DA SAUDE (RUA BERTIOGA), OP 530",
      "Bairro": "SAUDE",
      "Cidade": "SÃO PAULO",
      "Estado": "SP",
      "Praça": "SP",
      "Latitude": -23.611682,
      "Longitude": -46.633279,
      "Status": "Ativo",
      "Filial": "Sul",
      "Modelo de Abrigo": "CAOS LEVE",
      "Painel Digital": "1",
      "Painel Digital - Tipo": "SIMPLES",
      "Painel Digital - Posição": "45°",
      "Painel Estático": "1",
      "Painel Estático - Tipo": "SUSPENSO",
      "Painel Estático - Posição": "180°",
      "Link Operações": "https://operacoes.eletromidia.com.br/places/1525",
      "Foto Referência": "https://operacoes.eletromidia.com.br/storage/places/photos/a01525.jpeg",
      "digitalPanels": 1,
      "staticPanels": 1,
      "totalPanels": 2,
      "hasDigital": true,
      "hasStatic": true,
      "shelterModel": "CAOS LEVE"
    },
    {
      "Nº Eletro": "A01578",
      "Nº Parada": 810009900,
      "Ponto": "ABRIGOS CSP",
      "Área de Trabalho": "Zona Sul - SP",
      "Endereço": "AVENIDA DO RIO BONITO, 2293",
      "Bairro": "SOCORRO",
      "Cidade": "SÃO PAULO",
      "Estado": "SP",
      "Praça": "SP",
      "Latitude": -23.692786,
      "Longitude": -46.701515,
      "Status": "Ativo",
      "Filial": "Sul",
      "Modelo de Abrigo": "MINIMALISTA LEVE",
      "Painel Digital": "-",
      "Painel Digital - Tipo": "-",
      "Painel Digital - Posição": "-",
      "Painel Estático": "1",
      "Painel Estático - Tipo": "SIMPLES",
      "Painel Estático - Posição": "45°",
      "Link Operações": "https://operacoes.eletromidia.com.br/places/1578",
      "Foto Referência": "",
      "digitalPanels": 0,
      "staticPanels": 1,
      "totalPanels": 1,
      "hasDigital": false,
      "hasStatic": true,
      "shelterModel": "MINIMALISTA LEVE"
    },
    {
      "Nº Eletro": "A01584",
      "Nº Parada": 850015995,
      "Ponto": "ABRIGOS CSP",
      "Área de Trabalho": "Zona Sul - SP",
      "Endereço": "AVENIDA MAJOR SYLVIO DE MAGALHAES PADILHA, 16747",
      "Bairro": "VILA ANDRADE",
      "Cidade": "SÃO PAULO",
      "Estado": "SP",
      "Praça": "SP",
      "Latitude": -23.630197,
      "Longitude": -46.717298,
      "Status": "Ativo",
      "Filial": "Sul",
      "Modelo de Abrigo": "BRUTALISTA",
      "Painel Digital": "-",
      "Painel Digital - Tipo": "-",
      "Painel Digital - Posição": "-",
      "Painel Estático": "2",
      "Painel Estático - Tipo": "SIMPLES",
      "Painel Estático - Posição": "180°",
      "Link Operações": "https://operacoes.eletromidia.com.br/places/1584",
      "Foto Referência": "https://operacoes.eletromidia.com.br/storage/places/photos/a01584.jpeg",
      "digitalPanels": 0,
      "staticPanels": 2,
      "totalPanels": 2,
      "hasDigital": false,
      "hasStatic": true,
      "shelterModel": "BRUTALISTA"
    },
    {
      "Nº Eletro": "A01590",
      "Nº Parada": 9206289,
      "Ponto": "ABRIGOS CSP",
      "Área de Trabalho": "Zona Sul - SP",
      "Endereço": "AVENIDA BERNARDINO DE CAMPOS, 150",
      "Bairro": "VILA MARIANA",
      "Cidade": "SÃO PAULO",
      "Estado": "SP",
      "Praça": "SP",
      "Latitude": -23.572367,
      "Longitude": -46.643199,
      "Status": "Ativo",
      "Filial": "Sul",
      "Modelo de Abrigo": "NEW TECH",
      "Painel Digital": "1",
      "Painel Digital - Tipo": "SIMPLES",
      "Painel Digital - Posição": "90°",
      "Painel Estático": "-",
      "Painel Estático - Tipo": "-",
      "Painel Estático - Posição": "-",
      "Link Operações": "https://operacoes.eletromidia.com.br/places/1590",
      "Foto Referência": "https://operacoes.eletromidia.com.br/storage/places/photos/a01590.jpeg",
      "digitalPanels": 1,
      "staticPanels": 0,
      "totalPanels": 1,
      "hasDigital": true,
      "hasStatic": false,
      "shelterModel": "NEW TECH"
    },
    {
      "Nº Eletro": "A01646",
      "Nº Parada": 540014146,
      "Ponto": "ABRIGOS CSP",
      "Área de Trabalho": "Zona Leste - SP",
      "Endereço": "AVENIDA PAES DE BARROS, 2226",
      "Bairro": "MOOCA",
      "Cidade": "SÃO PAULO",
      "Estado": "SP",
      "Praça": "SP",
      "Latitude": -23.570096,
      "Longitude": -46.587572,
      "Status": "Ativo",
      "Filial": "Leste",
      "Modelo de Abrigo": "CAOS LEVE",
      "Painel Digital": "-",
      "Painel Digital - Tipo": "-",
      "Painel Digital - Posição": "-",
      "Painel Estático": "-",
      "Painel Estático - Tipo": "-",
      "Painel Estático - Posição": "-",
      "Link Operações": "https://operacoes.eletromidia.com.br/places/1646",
      "Foto Referência": "",
      "digitalPanels": 0,
      "staticPanels": 0,
      "totalPanels": 0,
      "hasDigital": false,
      "hasStatic": false,
      "shelterModel": "CAOS LEVE"
    },
    {
      "Nº Eletro": "A01663",
      "Nº Parada": 480014645,
      "Ponto": "ABRIGOS CSP",
      "Área de Trabalho": "Zona Oeste - SP",
      "Endereço": "PRAÇA FERNANDO PACHECO DE CASTRO, 56",
      "Bairro": "LAPA",
      "Cidade": "SÃO PAULO",
      "Estado": "SP",
      "Praça": "SP",
      "Latitude": -23.535578,
      "Longitude": -46.718814,
      "Status": "Ativo",
      "Filial": "Matriz",
      "Modelo de Abrigo": "CAOS LEVE",
      "Painel Digital": "-",
      "Painel Digital - Tipo": "-",
      "Painel Digital - Posição": "-",
      "Painel Estático": "2",
      "Painel Estático - Tipo": "SIMPLES/SUSPENSO",
      "Painel Estático - Posição": "180°",
      "Link Operações": "https://operacoes.eletromidia.com.br/places/1663",
      "Foto Referência": "https://operacoes.eletromidia.com.br/storage/places/photos/a01663.jpeg",
      "digitalPanels": 0,
      "staticPanels": 2,
      "totalPanels": 2,
      "hasDigital": false,
      "hasStatic": true,
      "shelterModel": "CAOS LEVE"
    },
    {
      "Nº Eletro": "A01667",
      "Nº Parada": 490016698,
      "Ponto": "ABRIGOS CSP",
      "Área de Trabalho": "Zona Leste - SP",
      "Endereço": "RUA VERGUEIRO, 1149",
      "Bairro": "LIBERDADE",
      "Cidade": "SÃO PAULO",
      "Estado": "SP",
      "Praça": "SP",
      "Latitude": -23.572201,
      "Longitude": -46.639796,
      "Status": "Ativo",
      "Filial": "Leste",
      "Modelo de Abrigo": "CAOS ESTRUTURADO",
      "Painel Digital": "1",
      "Painel Digital - Tipo": "SIMPLES",
      "Painel Digital - Posição": "90°",
      "Painel Estático": "-",
      "Painel Estático - Tipo": "-",
      "Painel Estático - Posição": "-",
      "Link Operações": "https://operacoes.eletromidia.com.br/places/1667",
      "Foto Referência": "https://operacoes.eletromidia.com.br/storage/places/photos/a01667.jpeg",
      "digitalPanels": 1,
      "staticPanels": 0,
      "totalPanels": 1,
      "hasDigital": true,
      "hasStatic": false,
      "shelterModel": "CAOS ESTRUTURADO"
    }
  ],
  "_note": "Sample data with panel counts based on CSV source. Summary layer adds flat panel count fields to each record."
}
