{"status":"success","meta":{"apiVersion":"5.0.0","layer":"main","count":2,"total":273,"cached":false,"cacheExpires":"2025-12-16T13:23:12.750Z","executionTimeMs":12495},"links":{"self":"?start=0&limit=2","next":"?start=2&limit=2","first":"?start=0&limit=2","last":"?start=272&limit=2"},"count":2,"total":273,"data":[{"Nº Eletro":"A08802","Nº Parada":480014794,"Identificador do Local":"","Ponto":"ABRIGOS CSP","Área de Trabalho":"Zona Oeste - SP","Endereço":"PRAÇA DOUTOR CIPRIANO DE MORAES, SN","Bairro":"LAPA","Cidade":"SÃO PAULO","Estado":"SP","Praça":"SP","Tipo de Equipamento":"","Tipo de Estabelecimento":"Abrigos São Paulo - Abrigos [Sem Publicidade] [383]","Latitude":-23.537233,"Longitude":-46.707552,"Status":"Ativo","Data Cadastro":"29/08/2025 19:18:12","Filial":"Matriz","Área de Risco":"-","Modelo de Abrigo":"-","Tipo de Adesivo":"-","Tipo de Piso":"-","Energizado":"-","Luminária":"-","Abrigo Amigo":"-","Wi-Fi":"-","Câmera":"-","Altura do Totem":"-","Painel Digital":"-","Painel Digital - Tipo":"-","Painel Digital - Posição":"-","Painel Estático":"-","Painel Estático - Tipo":"-","Painel Estático - Posição":"-","Link Operações":"Visualizar","Foto Referência":"","Observações":""},{"Nº Eletro":"A06710","Nº Parada":480012838,"Identificador do Local":"","Ponto":"ABRIGOS CSP","Área de Trabalho":"Zona Oeste - SP","Endereço":"RUA JOAO PEREIRA, 11","Bairro":"LAPA","Cidade":"SÃO PAULO","Estado":"SP","Praça":"SP","Tipo de Equipamento":"","Tipo de Estabelecimento":"Abrigos São Paulo - Abrigos [Sem Publicidade] [383]","Latitude":-23.517587,"Longitude":-46.705375,"Status":"Ativo","Data Cadastro":"27/06/2025 19:49:26","Filial":"Matriz","Área de Risco":"-","Modelo de Abrigo":"MINIMALISTA LEVE","Tipo de Adesivo":"-","Tipo de Piso":"-","Energizado":"Sim","Luminária":"-","Abrigo Amigo":"-","Wi-Fi":"-","Câmera":"-","Altura do Totem":"-","Painel Digital":"-","Painel Digital - Tipo":"-","Painel Digital - Posição":"-","Painel Estático":"-","Painel Estático - Tipo":"-","Painel Estático - Posição":"-","Link Operações":"Visualizar","Foto Referência":"Acessar Foto","Observações":""}]}
